date,n_det,time
2021-10-02 00:00:00,0,2021-10-02 00:00:00
2021-10-02 01:30:00,0,2021-10-02 01:30:00
2021-10-02 03:00:00,0,2021-10-02 03:00:00
2021-10-02 04:30:00,0,2021-10-02 04:30:00
2021-10-02 06:00:00,0,2021-10-02 06:00:00
2021-10-02 07:30:00,0,2021-10-02 07:30:00
2021-10-02 09:00:00,1,2021-10-02 09:00:00
2021-10-02 10:30:00,3,2021-10-02 10:30:00
2021-10-02 12:00:00,21,2021-10-02 12:00:00
2021-10-02 13:30:00,10,2021-10-02 13:30:00
2021-10-02 15:00:00,1,2021-10-02 15:00:00
2021-10-02 16:30:00,4,2021-10-02 16:30:00
2021-10-02 18:00:00,5,2021-10-02 18:00:00
2021-10-02 19:30:00,0,2021-10-02 19:30:00
2021-10-02 21:00:00,1,2021-10-02 21:00:00
2021-10-02 22:30:00,1,2021-10-02 22:30:00
2021-10-03 00:00:00,0,2021-10-03 00:00:00
2021-10-03 01:30:00,1,2021-10-03 01:30:00
2021-10-03 03:00:00,0,2021-10-03 03:00:00
2021-10-03 04:30:00,0,2021-10-03 04:30:00
2021-10-03 06:00:00,0,2021-10-03 06:00:00
2021-10-03 07:30:00,3,2021-10-03 07:30:00
2021-10-03 09:00:00,6,2021-10-03 09:00:00
2021-10-03 10:30:00,5,2021-10-03 10:30:00
2021-10-03 12:00:00,14,2021-10-03 12:00:00
2021-10-03 13:30:00,10,2021-10-03 13:30:00
2021-10-03 15:00:00,8,2021-10-03 15:00:00
2021-10-03 16:30:00,2,2021-10-03 16:30:00
2021-10-03 18:00:00,0,2021-10-03 18:00:00
2021-10-03 19:30:00,0,2021-10-03 19:30:00
2021-10-03 21:00:00,0,2021-10-03 21:00:00
2021-10-03 22:30:00,2,2021-10-03 22:30:00
2021-10-04 00:00:00,3,2021-10-04 00:00:00
