20210930_124700-34000-35000.wav,0,unknown
20210930_141300-12000-13000.wav,0,engine
20210930_153600-14000-15000.wav,0,engine
20210930_160400-35000-38000.wav,0,wind
20210930_165400-29000-30000.wav,0,engine
20210930_195000-45000-46000.wav,0,engine
20210930_195000-48000-50000.wav,0,engine
20210930_200000-27000-28000.wav,0,engine
20210930_200000-31000-33000.wav,0,engine
20211001_005100-26000-27000.wav,0,wind
20211001_025400-22000-23000.wav,0,wind
20211001_025400-41000-42000.wav,0,noise
20211001_032100-41000-43000.wav,0,wind
20211001_032200-25000-26000.wav,0,wind
20211001_032400-33000-35000.wav,0,wind
20211001_044700-22000-24000.wav,0,wind
20211001_062000-35000-36000.wav,0,engine
20211001_074600-46000-47000.wav,0,unknown
20211001_091600-12000-14000.wav,1,
20211001_111600-29000-31000.wav,0,noise
20211001_142500-45000-46000.wav,0,wind
20211001_143900-12000-13000.wav,0,engine
20211001_143900-7000-9000.wav,0,engine
20211001_193300-19000-20000.wav,0,unknown
20211001_193800-33000-34000.wav,0,unknown
20211001_201100-50000-51000.wav,0,unknown
20211001_201600-10000-11000.wav,0,unknown
20211002_054900-27000-28000.wav,0,noise
20211002_080400-38000-40000.wav,1,
20211002_081000-24000-25000.wav,0,engine
20211002_112700-14000-16000.wav,1,
20211002_113300-50000-51000.wav,1,
20211002_120500-17000-19000.wav,1,
20211002_121000-35000-36000.wav,1,
20211002_122600-20000-22000.wav,0,noise
20211002_122600-3000-6000.wav,0,engine
20211002_130700-27000-28000.wav,0,engine
20211002_154100-29000-31000.wav,0,engine
20211002_160600-45000-47000.wav,0,engine
20211002_160700-0-3000.wav,0,engine
20211002_160700-7000-8000.wav,0,engine
20211002_164300-48000-50000.wav,0,unknown
20211002_164400-16000-17000.wav,0,engine
20211002_172700-9000-11000.wav,1,
20211002_200500-27000-29000.wav,0,noise
20211003_035100-47000-49000.wav,0,wind
20211003_042800-19000-20000.wav,0,wind
20211003_051400-6000-8000.wav,0,wind
20211003_052000-34000-35000.wav,0,noise
20211003_053600-26000-28000.wav,0,wind
20211003_054300-15000-17000.wav,0,wind
20211003_060400-4000-5000.wav,0,wind
20211003_062400-2000-4000.wav,0,wind
20211003_070200-8000-11000.wav,0,wind
20211003_070600-0-1000.wav,0,wind
20211003_071700-34000-35000.wav,0,wind
20211003_072700-6000-9000.wav,0,wind
20211003_074200-22000-23000.wav,0,unknown
20211003_080200-3000-4000.wav,0,unknown
20211003_080900-45000-46000.wav,0,unknown
20211003_081200-32000-40000.wav,0,wind
20211003_081300-39000-43000.wav,0,wind
20211003_084300-6000-7000.wav,0,wind
20211003_084700-27000-28000.wav,0,noise
20211003_090000-19000-21000.wav,0,unknown
20211003_091900-8000-9000.wav,0,wind
20211003_092400-10000-11000.wav,0,wind
20211003_092800-26000-29000.wav,0,wind
20211003_093000-5000-6000.wav,0,wind
20211003_095700-24000-26000.wav,0,wind
20211003_100700-35000-36000.wav,0,wind
20211003_102800-12000-15000.wav,0,wind
20211003_103200-24000-27000.wav,0,wind
20211003_103200-29000-31000.wav,0,wind
20211003_104300-9000-10000.wav,0,unknown
20211003_105600-29000-30000.wav,0,unknown
20211003_105900-47000-48000.wav,0,wind
20211003_113000-13000-14000.wav,0,unknown
20211003_114300-27000-28000.wav,0,unknown
20211003_120600-17000-19000.wav,0,wind
20211003_122300-39000-40000.wav,0,wind
20211003_122900-11000-13000.wav,0,wind
20211003_124000-27000-29000.wav,0,wind
20211003_124100-28000-29000.wav,0,unknown
20211003_124100-30000-32000.wav,0,wind
20211003_125400-15000-16000.wav,0,wind
20211003_134600-11000-12000.wav,0,wind
20211003_152700-9000-10000.wav,0,wind
20211003_161200-10000-12000.wav,0,unknown
20211003_170900-5000-8000.wav,1,
20211003_215800-43000-44000.wav,0,noise
20211004_061200-6000-7000.wav,0,noise
20211004_102900-41000-42000.wav,0,noise
20211004_110600-38000-39000.wav,0,unknown
20211004_110600-40000-41000.wav,0,wind
20211004_151600-49000-50000.wav,0,wind
20211004_163500-21000-22000.wav,0,noise
20211004_164100-36000-39000.wav,1,
20211004_165000-36000-38000.wav,0,unknown
20211004_235600-43000-44000.wav,0,engine
