20210930_155000-19000-20000.wav,0,wind,
20210930_155000-21000-22000.wav,0,noise,
20210930_155000-4000-5000.wav,0,audiomoth_touch,
20210930_173700-33000-34000.wav,0,unknown,
20210930_175100-32000-33000.wav,0,wind,
20211001_084900-4000-6000.wav,1,,
20211001_110400-12000-13000.wav,0,animal,not sure
20211001_110400-31000-32000.wav,1,,
20211001_110400-36000-37000.wav,1,,
20211001_110400-39000-40000.wav,1,,
20211001_110400-7000-8000.wav,0,animal,
20211001_112200-21000-23000.wav,0,animal,not sure
20211001_112200-24000-25000.wav,0,noise,
20211001_112200-26000-27000.wav,1,,
20211001_112200-28000-29000.wav,0,noise,
20211001_113700-5000-8000.wav,0,audiomoth_touch,
20211001_120900-44000-45000.wav,0,animal,
20211001_125600-14000-15000.wav,0,engine,
20211001_143900-20000-22000.wav,0,engine,
20211001_150900-28000-30000.wav,0,steps,
20211001_150900-44000-46000.wav,0,steps,
20211001_151100-29000-30000.wav,0,steps,
20211001_151500-0-3000.wav,0,steps,
20211001_151500-34000-39000.wav,0,steps,
20211001_151800-17000-18000.wav,0,steps,
20211001_152500-10000-11000.wav,0,steps,
20211001_153100-25000-26000.wav,0,steps,
20211001_180700-23000-24000.wav,0,noise,
20211001_180800-15000-16000.wav,0,bird,
20211001_181000-46000-47000.wav,0,noise,
20211001_181300-10000-12000.wav,0,noise,
20211001_181300-46000-47000.wav,0,unknown,
20211001_181500-32000-34000.wav,0,noise,
20211001_181500-35000-37000.wav,0,noise,
20211001_182000-36000-38000.wav,0,noise,
20211001_182200-38000-39000.wav,0,unknown,
20211001_182600-41000-42000.wav,0,unknown,
20211001_183100-13000-14000.wav,0,noise,
20211001_185400-31000-32000.wav,0,unknown,
20211002_074500-12000-15000.wav,1,,
20211002_094500-33000-34000.wav,0,steps,
20211002_100300-50000-51000.wav,1,,
20211002_100800-14000-15000.wav,0,steps,
20211002_102700-18000-19000.wav,1,,
20211002_103600-33000-38000.wav,0,steps,
20211002_110000-20000-21000.wav,0,unknown,
20211002_121000-8000-11000.wav,0,steps,
20211002_121900-49000-50000.wav,1,,
20211002_132500-39000-40000.wav,1,,
20211002_141100-36000-37000.wav,0,unknown,
20211002_150200-26000-27000.wav,1,,
20211002_165700-42000-43000.wav,0,wind,
20211002_183800-37000-38000.wav,0,unknown,
20211003_001400-46000-47000.wav,0,unknown,
20211003_072800-35000-36000.wav,0,wind,
20211003_073700-50000-51000.wav,0,unknown,
20211003_081700-46000-47000.wav,0,wind,
20211003_111200-26000-27000.wav,1,,
20211003_130100-34000-35000.wav,1,,
20211003_130200-4000-5000.wav,0,noise,
20211003_130200-6000-7000.wav,1,,
20211003_130200-8000-10000.wav,1,,
20211003_142600-29000-30000.wav,0,animal,
20211003_142700-11000-12000.wav,0,animal,
20211003_203800-43000-44000.wav,0,noise,
20211003_212800-47000-49000.wav,0,wind,
20211003_215000-5000-6000.wav,0,noise,
20211003_215800-19000-20000.wav,0,noise,
20211003_215800-25000-26000.wav,0,unknown,
20211003_220000-19000-20000.wav,0,unknown,
20211003_220000-25000-27000.wav,0,noise,
20211003_220000-41000-43000.wav,0,noise,
20211003_220100-5000-6000.wav,0,,
20211003_220700-11000-13000.wav,0,unknown,
20211003_220700-20000-21000.wav,0,unknown,
20211003_220800-7000-8000.wav,0,unknown,
20211003_220900-25000-26000.wav,0,unknown,
20211003_220900-37000-38000.wav,0,unknown,
20211003_220900-9000-10000.wav,0,unknown,
20211003_221300-11000-12000.wav,0,unknown,
20211004_023000-21000-22000.wav,0,wind,
20211004_031400-13000-14000.wav,0,wind,
20211004_082400-45000-46000.wav,0,wind,
20211004_083900-21000-22000.wav,0,wind,
20211004_104300-18000-19000.wav,0,wind,
20211004_105400-20000-21000.wav,0,noise,
20211004_121600-5000-6000.wav,0,wind,
20211004_131200-38000-39000.wav,0,unknown,
20211004_135600-35000-37000.wav,0,wind,
20211004_141800-46000-47000.wav,0,unknown,
20211004_150600-47000-48000.wav,0,unknown,
20211004_151200-16000-17000.wav,0,unknown,
20211004_151500-3000-4000.wav,0,noise,
20211004_163800-8000-9000.wav,1,,
20211004_163900-12000-14000.wav,1,,
20211004_163900-29000-30000.wav,0,electric_noise,
20211004_163900-35000-36000.wav,1,,
20211004_164200-22000-23000.wav,0,unknown,
20211004_165000-1000-2000.wav,0,electric_noise,
20211004_234100-42000-43000.wav,0,electric_noise,
